{
    "name": "Team",
    "fields": [
        {
            "fieldName": "teamName",
            "fieldType": "String",
            "fieldValidateRules": [
                "required"
            ]
        }
    ],
    "relationships": [
        {
            "relationshipType": "one-to-many",
            "otherEntityName": "player",
            "otherEntityRelationshipName": "team",
            "relationshipName": "player"
        },
        {
            "relationshipType": "one-to-many",
            "otherEntityName": "matchResult",
            "otherEntityRelationshipName": "team",
            "relationshipName": "matchResult"
        },
        {
            "relationshipType": "many-to-one",
            "otherEntityName": "club",
            "otherEntityRelationshipName": "team",
            "relationshipName": "club",
            "otherEntityField": "id"
        }
    ],
    "changelogDate": "20200108150907",
    "entityTableName": "team",
    "dto": "no",
    "pagination": "infinite-scroll",
    "service": "no",
    "jpaMetamodelFiltering": false,
    "fluentMethods": true,
    "readOnly": false,
    "clientRootFolder": "",
    "applications": [
        "ClubAltach"
    ]
}